%YAML 1.1
%TAG !u! tag:unity3d.com,2011:
--- !u!114 &11400000
MonoBehaviour:
  m_ObjectHideFlags: 0
  m_CorrespondingSourceObject: {fileID: 0}
  m_PrefabInstance: {fileID: 0}
  m_PrefabAsset: {fileID: 0}
  m_GameObject: {fileID: 0}
  m_Enabled: 1
  m_EditorHideFlags: 0
  m_Script: {fileID: 11500000, guid: 95e66c6366d904e98bc83428217d4fd7, type: 3}
  m_Name: CapsuleMovement
  m_EditorClassIdentifier: 
  _data:
    _json: '{"graph":{"variables":{"Kind":"Flow","collection":{"$content":[{"name":"MoveSpeed","value":{"$content":0.0,"$type":"System.Single"},"typeHandle":{"Identification":"System.Single,
      mscorlib, Version=4.0.0.0, Culture=neutral, PublicKeyToken=b77a5c561934e089","$version":"A"},"$version":"A"},{"name":"MoveAxis","value":{"x":0.0,"y":0.0,"z":0.0,"$type":"UnityEngine.Vector3"},"typeHandle":{"Identification":"UnityEngine.Vector3,
      UnityEngine.CoreModule, Version=0.0.0.0, Culture=neutral, PublicKeyToken=null","$version":"A"},"$version":"A"}],"$version":"A"},"$version":"A"},"controlInputDefinitions":[],"controlOutputDefinitions":[],"valueInputDefinitions":[],"valueOutputDefinitions":[],"title":"CapsuleMovement","summary":null,"pan":{"x":135.7078,"y":105.6098},"zoom":0.6833333,"elements":[{"chainable":false,"member":{"name":"ClampMagnitude","parameterTypes":["UnityEngine.Vector3","System.Single"],"targetType":"UnityEngine.Vector3","targetTypeName":"UnityEngine.Vector3","$version":"A"},"defaultValues":{"%vector":{"x":0.0,"y":0.0,"z":0.0,"$type":"UnityEngine.Vector3"},"%maxLength":{"$content":0.0,"$type":"System.Single"}},"position":{"x":-322.0,"y":-284.0},"guid":"14748cd0-0430-40f7-a67c-d65b3d0d6970","$version":"A","$type":"Unity.VisualScripting.InvokeMember","$id":"11"},{"defaultValues":{},"position":{"x":-101.0,"y":84.0},"guid":"97b1cb24-f9e9-4578-9db0-7b53191c6ec6","$version":"A","$type":"Unity.VisualScripting.GenericMultiply","$id":"14"},{"defaultValues":{},"position":{"x":161.0,"y":-44.0},"guid":"e5442b6e-22a1-4917-940a-73e87c17b237","$version":"A","$type":"Unity.VisualScripting.GenericMultiply","$id":"16"},{"member":{"name":"deltaTime","parameterTypes":null,"targetType":"UnityEngine.Time","targetTypeName":"UnityEngine.Time","$version":"A"},"defaultValues":{},"position":{"x":-319.0,"y":178.0},"guid":"84ae4222-5120-4909-bbf8-8238133fdb24","$version":"A","$type":"Unity.VisualScripting.GetMember","$id":"18"},{"coroutine":false,"defaultValues":{},"position":{"x":-600.0,"y":-284.0},"guid":"c456ed69-1b63-4a84-b8e1-56230393406c","$version":"A","$type":"Unity.VisualScripting.Update","$id":"21"},{"chainable":false,"member":{"name":"Translate","parameterTypes":["UnityEngine.Vector3"],"targetType":"UnityEngine.Transform","targetTypeName":"UnityEngine.Transform","$version":"A"},"defaultValues":{"target":null,"%translation":{"x":0.0,"y":0.0,"z":0.0,"$type":"UnityEngine.Vector3"}},"position":{"x":494.0,"y":-282.0},"guid":"5a1d8377-2e78-4319-8e00-879a7111e97d","$version":"A","$type":"Unity.VisualScripting.InvokeMember","$id":"23"},{"specifyFallback":false,"kind":"Graph","defaultValues":{"name":{"$content":"MoveSpeed","$type":"System.String"}},"position":{"x":-605.0,"y":-85.0},"guid":"34571d35-5cea-400e-a349-55107664fb18","$version":"A","$type":"Unity.VisualScripting.GetVariable","$id":"26"},{"specifyFallback":false,"kind":"Graph","defaultValues":{"name":{"$content":"MoveAxis","$type":"System.String"}},"position":{"x":-328.0,"y":-77.0},"guid":"5f826d53-bd01-46af-b78f-5e87378f2868","$version":"A","$type":"Unity.VisualScripting.GetVariable","$id":"28"},{"sourceUnit":{"$ref":"21"},"sourceKey":"trigger","destinationUnit":{"$ref":"11"},"destinationKey":"enter","guid":"299884b7-acce-4d74-b47e-b24eedb166df","$type":"Unity.VisualScripting.ControlConnection"},{"sourceUnit":{"$ref":"11"},"sourceKey":"exit","destinationUnit":{"$ref":"23"},"destinationKey":"enter","guid":"9973aad3-61c4-467d-9f6a-a1a65527a2fc","$type":"Unity.VisualScripting.ControlConnection"},{"sourceUnit":{"$ref":"11"},"sourceKey":"result","destinationUnit":{"$ref":"16"},"destinationKey":"a","guid":"e0f5802f-f4ab-4f01-b818-f56db101177f","$type":"Unity.VisualScripting.ValueConnection"},{"sourceUnit":{"$ref":"16"},"sourceKey":"product","destinationUnit":{"$ref":"23"},"destinationKey":"%translation","guid":"1f784b16-d62e-4287-bde5-95d0156213ee","$type":"Unity.VisualScripting.ValueConnection"},{"sourceUnit":{"$ref":"14"},"sourceKey":"product","destinationUnit":{"$ref":"16"},"destinationKey":"b","guid":"2473d049-2a5e-4d54-8dd5-9c46cab173dc","$type":"Unity.VisualScripting.ValueConnection"},{"sourceUnit":{"$ref":"18"},"sourceKey":"value","destinationUnit":{"$ref":"14"},"destinationKey":"b","guid":"e369451e-ec05-45a6-8101-afe903518c76","$type":"Unity.VisualScripting.ValueConnection"},{"sourceUnit":{"$ref":"26"},"sourceKey":"value","destinationUnit":{"$ref":"11"},"destinationKey":"%vector","guid":"fa38675b-5d25-4e9e-a63f-fa1248c74bb2","$type":"Unity.VisualScripting.ValueConnection"},{"sourceUnit":{"$ref":"28"},"sourceKey":"value","destinationUnit":{"$ref":"14"},"destinationKey":"a","guid":"2e756968-915e-4510-aa5e-10c10b0a198c","$type":"Unity.VisualScripting.ValueConnection"}],"$version":"A"}}'
    _objectReferences: []
